{
  "_fv": 39,
  "_type": "procedure",
  "definition": {
    "procedurexml": "<xml xmlns=\"https://developers.google.com/blockly/xml\"><block type=\"event_trigger\" deletable=\"false\" x=\"40\" y=\"40\"><field name=\"trigger\">no_ext_trigger</field><next><block type=\"controls_if\"><value name=\"IF0\"><block type=\"logic_binary_ops\" inline=\"false\"><field name=\"OP\">OR</field><value name=\"A\"><block type=\"compare_mcblocks\" inline=\"false\"><value name=\"a\"><block type=\"world_data_fluidat\" inline=\"false\"><value name=\"x\"><block type=\"entity_lookpos_x\" inline=\"false\"><field name=\"fluid_mode\">ANY</field><field name=\"block_mode\">COLLIDER</field><value name=\"entity\"><block type=\"entity_from_deps\"></block></value><value name=\"maxdistance\"><block type=\"math_number\"><field name=\"NUM\">5</field></block></value></block></value><value name=\"y\"><block type=\"entity_lookpos_y\" inline=\"false\"><field name=\"fluid_mode\">ANY</field><field name=\"block_mode\">COLLIDER</field><value name=\"entity\"><block type=\"entity_from_deps\"></block></value><value name=\"maxdistance\"><block type=\"math_number\"><field name=\"NUM\">5</field></block></value></block></value><value name=\"z\"><block type=\"entity_lookpos_z\" inline=\"false\"><field name=\"fluid_mode\">ANY</field><field name=\"block_mode\">COLLIDER</field><value name=\"entity\"><block type=\"entity_from_deps\"></block></value><value name=\"maxdistance\"><block type=\"math_number\"><field name=\"NUM\">5</field></block></value></block></value></block></value><value name=\"b\"><block type=\"mcitem_allblocks\"><field name=\"value\">CUSTOM:LitixCamoniaFluid</field></block></value></block></value><value name=\"B\"><block type=\"compare_mcblocks\" inline=\"false\"><value name=\"a\"><block type=\"world_data_fluidat\" inline=\"false\"><value name=\"x\"><block type=\"entity_lookpos_x\" inline=\"false\"><field name=\"fluid_mode\">ANY</field><field name=\"block_mode\">OUTLINE</field><value name=\"entity\"><block type=\"entity_from_deps\"></block></value><value name=\"maxdistance\"><block type=\"math_number\"><field name=\"NUM\">5</field></block></value></block></value><value name=\"y\"><block type=\"entity_lookpos_y\" inline=\"false\"><field name=\"fluid_mode\">ANY</field><field name=\"block_mode\">OUTLINE</field><value name=\"entity\"><block type=\"entity_from_deps\"></block></value><value name=\"maxdistance\"><block type=\"math_number\"><field name=\"NUM\">5</field></block></value></block></value><value name=\"z\"><block type=\"entity_lookpos_z\" inline=\"false\"><field name=\"fluid_mode\">ANY</field><field name=\"block_mode\">OUTLINE</field><value name=\"entity\"><block type=\"entity_from_deps\"></block></value><value name=\"maxdistance\"><block type=\"math_number\"><field name=\"NUM\">5</field></block></value></block></value></block></value><value name=\"b\"><block type=\"mcitem_allblocks\"><field name=\"value\">CUSTOM:LitixCamoniaFluid</field></block></value></block></value></block></value><statement name=\"DO0\"><block type=\"entity_add_item\"><value name=\"amount\"><block type=\"math_number\"><field name=\"NUM\">1</field></block></value><value name=\"item\"><block type=\"mcitem_all\"><field name=\"value\">CUSTOM:LitixCamoniaSpray</field></block></value><value name=\"entity\"><block type=\"entity_from_deps\"></block></value><next><block type=\"entity_remove_item\"><value name=\"amount\"><block type=\"math_number\"><field name=\"NUM\">1</field></block></value><value name=\"item\"><block type=\"mcitem_all\"><field name=\"value\">CUSTOM:EmptySpray</field></block></value><value name=\"entity\"><block type=\"entity_from_deps\"></block></value></block></next></block></statement></block></next></block></xml>"
  }
}