{
  "_fv": 39,
  "_type": "procedure",
  "definition": {
    "procedurexml": "<xml xmlns=\"https://developers.google.com/blockly/xml\"><block type=\"event_trigger\" deletable=\"false\" x=\"0\" y=\"0\"><field name=\"trigger\">player_right_click_entity</field><next><block type=\"controls_if\"><value name=\"IF0\"><block type=\"logic_binary_ops\"><field name=\"OP\">OR</field><value name=\"A\"><block type=\"logic_entity_compare\"><field name=\"entity\">EntityPlayer</field><value name=\"compareTo\"><block type=\"entity_from_deps\"></block></value></block></value><value name=\"B\"><block type=\"logic_entity_compare\"><field name=\"entity\">EntityPlayerMP</field><value name=\"compareTo\"><block type=\"entity_from_deps\"></block></value></block></value></block></value><statement name=\"DO0\"><block type=\"controls_if\"><value name=\"IF0\"><block type=\"logic_binary_ops\" inline=\"false\"><field name=\"OP\">AND</field><value name=\"A\"><block type=\"logic_binary_ops\"><field name=\"OP\">EQ</field><value name=\"A\"><block type=\"variables_get_logic\"><mutation xmlns=\"http://www.w3.org/1999/xhtml\" is_player_var=\"true\" has_entity=\"true\"></mutation><field name=\"VAR\">global:Friendly_mode</field><value name=\"entity\"><block type=\"entity_from_deps\"></block></value></block></value><value name=\"B\"><block type=\"logic_boolean\"><field name=\"BOOL\">TRUE</field></block></value></block></value><value name=\"B\"><block type=\"logic_binary_ops\"><field name=\"OP\">AND</field><value name=\"A\"><block type=\"logic_binary_ops\"><field name=\"OP\">EQ</field><value name=\"A\"><block type=\"variables_get_logic\"><mutation xmlns=\"http://www.w3.org/1999/xhtml\" is_player_var=\"true\" has_entity=\"true\"></mutation><field name=\"VAR\">global:transfur</field><value name=\"entity\"><block type=\"entity_from_deps\"></block></value></block></value><value name=\"B\"><block type=\"logic_boolean\"><field name=\"BOOL\">TRUE</field></block></value></block></value><value name=\"B\"><block type=\"logic_binary_ops\"><field name=\"OP\">EQ</field><value name=\"A\"><block type=\"variables_get_logic\"><mutation xmlns=\"http://www.w3.org/1999/xhtml\" is_player_var=\"true\" has_entity=\"true\"></mutation><field name=\"VAR\">global:transfur</field><value name=\"entity\"><block type=\"source_entity_from_deps\"></block></value></block></value><value name=\"B\"><block type=\"logic_boolean\"><field name=\"BOOL\">FALSE</field></block></value></block></value></block></value></block></value><statement name=\"DO0\"><block type=\"controls_if\"><mutation else=\"1\"></mutation><value name=\"IF0\"><block type=\"logic_binary_ops\"><field name=\"OP\">EQ</field><value name=\"A\"><block type=\"variables_get_logic\"><mutation xmlns=\"http://www.w3.org/1999/xhtml\" is_player_var=\"true\" has_entity=\"true\"></mutation><field name=\"VAR\">global:organic_transfur</field><value name=\"entity\"><block type=\"entity_from_deps\"></block></value></block></value><value name=\"B\"><block type=\"logic_boolean\"><field name=\"BOOL\">FALSE</field></block></value></block></value><statement name=\"DO0\"><block type=\"move_entity\"><value name=\"entity\"><block type=\"source_entity_from_deps\"></block></value><value name=\"x\"><block type=\"entity_pos_x\"><value name=\"entity\"><block type=\"entity_from_deps\"></block></value></block></value><value name=\"y\"><block type=\"entity_pos_y\"><value name=\"entity\"><block type=\"entity_from_deps\"></block></value></block></value><value name=\"z\"><block type=\"entity_pos_z\"><value name=\"entity\"><block type=\"entity_from_deps\"></block></value></block></value><next><block type=\"entity_set_gamemode\"><field name=\"gamemode\">SPECTATOR</field><value name=\"entity\"><block type=\"source_entity_from_deps\"></block></value><next><block type=\"entity_add_potion_advanced\"><field name=\"potion\">CUSTOM:Infriendlygrabeffect</field><value name=\"level\"><block type=\"math_number\"><field name=\"NUM\">0</field></block></value><value name=\"duration\"><block type=\"math_number\"><field name=\"NUM\">50</field></block></value><value name=\"ambient\"><block type=\"logic_boolean\"><field name=\"BOOL\">FALSE</field></block></value><value name=\"particles\"><block type=\"logic_boolean\"><field name=\"BOOL\">FALSE</field></block></value><value name=\"entity\"><block type=\"source_entity_from_deps\"></block></value><next><block type=\"entity_add_potion_advanced\"><field name=\"potion\">CUSTOM:Infriendlygrab</field><value name=\"level\"><block type=\"math_number\"><field name=\"NUM\">0</field></block></value><value name=\"duration\"><block type=\"math_number\"><field name=\"NUM\">10000000</field></block></value><value name=\"ambient\"><block type=\"logic_boolean\"><field name=\"BOOL\">FALSE</field></block></value><value name=\"particles\"><block type=\"logic_boolean\"><field name=\"BOOL\">FALSE</field></block></value><value name=\"entity\"><block type=\"entity_from_deps\"></block></value><next><block type=\"entity_add_potion_advanced\"><field name=\"potion\">CUSTOM:Infriendlygrab</field><value name=\"level\"><block type=\"math_number\"><field name=\"NUM\">0</field></block></value><value name=\"duration\"><block type=\"math_number\"><field name=\"NUM\">10000000</field></block></value><value name=\"ambient\"><block type=\"logic_boolean\"><field name=\"BOOL\">FALSE</field></block></value><value name=\"particles\"><block type=\"logic_boolean\"><field name=\"BOOL\">FALSE</field></block></value><value name=\"entity\"><block type=\"source_entity_from_deps\"></block></value><next><block type=\"play_sound\"><field name=\"sound\">CUSTOM:enter_in_friendly_grab</field><field name=\"soundcategory\">neutral</field><value name=\"x\"><block type=\"entity_pos_x\"><value name=\"entity\"><block type=\"entity_from_deps\"></block></value></block></value><value name=\"y\"><block type=\"entity_pos_y\"><value name=\"entity\"><block type=\"entity_from_deps\"></block></value></block></value><value name=\"z\"><block type=\"entity_pos_z\"><value name=\"entity\"><block type=\"entity_from_deps\"></block></value></block></value><value name=\"level\"><block type=\"math_number\"><field name=\"NUM\">1</field></block></value><value name=\"pitch\"><block type=\"math_number\"><field name=\"NUM\">1</field></block></value></block></next></block></next></block></next></block></next></block></next></block></statement><statement name=\"ELSE\"><block type=\"entity_send_chat\"><value name=\"text\"><block type=\"text\"><field name=\"TEXT\">they are organic so you just §chug§r they</field></block></value><value name=\"entity\"><block type=\"source_entity_from_deps\"></block></value><value name=\"actbar\"><block type=\"logic_boolean\"><field name=\"BOOL\">TRUE</field></block></value><next><block type=\"entity_send_chat\"><value name=\"text\"><block type=\"text_join\"><mutation items=\"2\"></mutation><value name=\"ADD0\"><block type=\"entity_registry_name\"><value name=\"entity\"><block type=\"source_entity_from_deps\"></block></value></block></value><value name=\"ADD1\"><block type=\"text\"><field name=\"TEXT\"> §chug§r you</field></block></value></block></value><value name=\"entity\"><block type=\"entity_from_deps\"></block></value><value name=\"actbar\"><block type=\"logic_boolean\"><field name=\"BOOL\">TRUE</field></block></value><next><block type=\"entity_add_achievement\"><field name=\"achievement\">CUSTOM:Hug</field><value name=\"entity\"><block type=\"entity_from_deps\"></block></value><next><block type=\"entity_add_achievement\"><field name=\"achievement\">CUSTOM:Hug</field><value name=\"entity\"><block type=\"source_entity_from_deps\"></block></value></block></next></block></next></block></next></block></statement></block></statement></block></statement></block></next></block></xml>"
  }
}