{
  "_fv": 39,
  "_type": "procedure",
  "definition": {
    "procedurexml": "<xml xmlns=\"https://developers.google.com/blockly/xml\"><variables><variable type=\"Number\" id=\"cooldown\">cooldown</variable></variables><block type=\"event_trigger\" deletable=\"false\" x=\"0\" y=\"0\"><field name=\"trigger\">player_ticks</field><next><block type=\"world_entity_inrange_foreach\"><value name=\"_placeholder\"><block type=\"entity_iterator\"></block></value><value name=\"x\"><block type=\"entity_pos_x\"><value name=\"entity\"><block type=\"entity_from_deps\"></block></value></block></value><value name=\"y\"><block type=\"entity_pos_y\"><value name=\"entity\"><block type=\"entity_from_deps\"></block></value></block></value><value name=\"z\"><block type=\"entity_pos_z\"><value name=\"entity\"><block type=\"entity_from_deps\"></block></value></block></value><value name=\"range\"><block type=\"math_number\"><field name=\"NUM\">4</field></block></value><statement name=\"foreach\"><block type=\"controls_if\"><value name=\"IF0\"><block type=\"logic_negate\"><value name=\"BOOL\"><block type=\"compare_entities\"><value name=\"a\"><block type=\"entity_iterator\"></block></value><value name=\"b\"><block type=\"entity_from_deps\"></block></value></block></value></block></value><statement name=\"DO0\"><block type=\"controls_if\"><value name=\"IF0\"><block type=\"logic_binary_ops\"><field name=\"OP\">EQ</field><value name=\"A\"><block type=\"variables_get_logic\"><mutation xmlns=\"http://www.w3.org/1999/xhtml\" is_player_var=\"true\" has_entity=\"true\"></mutation><field name=\"VAR\">global:Friendly_mode</field><value name=\"entity\"><block type=\"entity_iterator\"></block></value></block></value><value name=\"B\"><block type=\"logic_boolean\"><field name=\"BOOL\">TRUE</field></block></value></block></value><statement name=\"DO0\"><block type=\"entity_add_achievement\"><field name=\"achievement\">CUSTOM:FurryFriend</field><value name=\"entity\"><block type=\"entity_from_deps\"></block></value></block></statement><next><block type=\"controls_if\"><value name=\"IF0\"><block type=\"logic_entity_compare\"><field name=\"entity\">CUSTOM:Foxyas</field><value name=\"compareTo\"><block type=\"entity_iterator\"></block></value></block></value><statement name=\"DO0\"><block type=\"entity_add_achievement\"><field name=\"achievement\">CUSTOM:FurryFriend</field><value name=\"entity\"><block type=\"entity_from_deps\"></block></value></block></statement></block></next></block></statement></block></statement><next><block type=\"controls_if\"><value name=\"IF0\"><block type=\"logic_binary_ops\"><field name=\"OP\">OR</field><value name=\"A\"><block type=\"entity_has_item_inventory\"><value name=\"entity\"><block type=\"entity_from_deps\"></block></value><value name=\"item\"><block type=\"mcitem_all\"><field name=\"value\">CUSTOM:Syringewithlitixcammonia</field></block></value></block></value><value name=\"B\"><block type=\"logic_binary_ops\"><field name=\"OP\">OR</field><value name=\"A\"><block type=\"entity_has_item_inventory\"><value name=\"entity\"><block type=\"entity_from_deps\"></block></value><value name=\"item\"><block type=\"mcitem_all\"><field name=\"value\">CUSTOM:Potwithcamonia</field></block></value></block></value><value name=\"B\"><block type=\"entity_has_item_inventory\"><value name=\"entity\"><block type=\"entity_from_deps\"></block></value><value name=\"item\"><block type=\"mcitem_all\"><field name=\"value\">CUSTOM:DescontrolSyringe</field></block></value></block></value></block></value></block></value><statement name=\"DO0\"><block type=\"entity_add_achievement\"><field name=\"achievement\">CUSTOM:Untransfuritemadvancement</field><value name=\"entity\"><block type=\"entity_from_deps\"></block></value></block></statement><next><block type=\"controls_if\"><value name=\"IF0\"><block type=\"entity_has_item_inventory\"><value name=\"entity\"><block type=\"entity_from_deps\"></block></value><value name=\"item\"><block type=\"mcitem_all\"><field name=\"value\">CUSTOM:Unifuser</field></block></value></block></value><statement name=\"DO0\"><block type=\"entity_add_achievement\"><field name=\"achievement\">CUSTOM:UnifuserAdvancement</field><value name=\"entity\"><block type=\"entity_from_deps\"></block></value></block></statement><next><block type=\"controls_if\"><value name=\"IF0\"><block type=\"entity_has_item_inventory\"><value name=\"entity\"><block type=\"entity_from_deps\"></block></value><value name=\"item\"><block type=\"mcitem_all\"><field name=\"value\">CUSTOM:Catlyzer</field></block></value></block></value><statement name=\"DO0\"><block type=\"entity_add_achievement\"><field name=\"achievement\">CUSTOM:CatlyzerAdvancement</field><value name=\"entity\"><block type=\"entity_from_deps\"></block></value></block></statement><next><block type=\"controls_if\"><mutation else=\"1\"></mutation><value name=\"IF0\"><block type=\"logic_binary_ops\"><field name=\"OP\">EQ</field><value name=\"A\"><block type=\"variables_get_logic\"><mutation xmlns=\"http://www.w3.org/1999/xhtml\" is_player_var=\"true\" has_entity=\"true\"></mutation><field name=\"VAR\">global:transfur</field><value name=\"entity\"><block type=\"entity_from_deps\"></block></value></block></value><value name=\"B\"><block type=\"logic_boolean\"><field name=\"BOOL\">TRUE</field></block></value></block></value><statement name=\"DO0\"><block type=\"variables_set_logic\"><mutation xmlns=\"http://www.w3.org/1999/xhtml\" is_player_var=\"true\" has_entity=\"true\"></mutation><field name=\"VAR\">global:human_Form</field><value name=\"VAL\"><block type=\"logic_boolean\"><field name=\"BOOL\">FALSE</field></block></value><value name=\"entity\"><block type=\"entity_from_deps\"></block></value></block></statement><statement name=\"ELSE\"><block type=\"variables_set_logic\"><mutation xmlns=\"http://www.w3.org/1999/xhtml\" is_player_var=\"true\" has_entity=\"true\"></mutation><field name=\"VAR\">global:human_Form</field><value name=\"VAL\"><block type=\"logic_boolean\"><field name=\"BOOL\">TRUE</field></block></value><value name=\"entity\"><block type=\"entity_from_deps\"></block></value></block></statement><next><block type=\"controls_if\"><mutation else=\"1\"></mutation><value name=\"IF0\"><block type=\"logic_binary_ops\"><field name=\"OP\">AND</field><value name=\"A\"><block type=\"logic_binary_ops\"><field name=\"OP\">EQ</field><value name=\"A\"><block type=\"variables_get_logic\"><mutation xmlns=\"http://www.w3.org/1999/xhtml\" is_player_var=\"true\" has_entity=\"true\"></mutation><field name=\"VAR\">global:transfur</field><value name=\"entity\"><block type=\"entity_from_deps\"></block></value></block></value><value name=\"B\"><block type=\"logic_boolean\"><field name=\"BOOL\">TRUE</field></block></value></block></value><value name=\"B\"><block type=\"logic_binary_ops\"><field name=\"OP\">EQ</field><value name=\"A\"><block type=\"variables_get_logic\"><mutation xmlns=\"http://www.w3.org/1999/xhtml\" is_player_var=\"true\" has_entity=\"true\"></mutation><field name=\"VAR\">global:organic_transfur</field><value name=\"entity\"><block type=\"entity_from_deps\"></block></value></block></value><value name=\"B\"><block type=\"logic_boolean\"><field name=\"BOOL\">TRUE</field></block></value></block></value></block></value><statement name=\"DO0\"><block type=\"controls_if\"><value name=\"IF0\"><block type=\"logic_negate\"><value name=\"BOOL\"><block type=\"text_binary_ops\"><value name=\"A\"><block type=\"variables_get_string\"><mutation xmlns=\"http://www.w3.org/1999/xhtml\" is_player_var=\"true\" has_entity=\"true\"></mutation><field name=\"VAR\">global:LatexForm</field><value name=\"entity\"><block type=\"entity_from_deps\"></block></value></block></value><value name=\"B\"><block type=\"text\"><field name=\"TEXT\">changed:form_latex_beifeng</field></block></value></block></value></block></value><statement name=\"DO0\"><block type=\"entity_execute_command\"><value name=\"command\"><block type=\"text\"><field name=\"TEXT\">attribute @s forge:swim_speed modifier add 17c5b5cf-bdae-4191-84d1-433db7cba758 \"organic_swin_buff\" 0.30 add</field></block></value><value name=\"entity\"><block type=\"entity_from_deps\"></block></value></block></statement></block></statement><statement name=\"ELSE\"><block type=\"entity_execute_command\"><value name=\"command\"><block type=\"text\"><field name=\"TEXT\">attribute @s forge:swim_speed modifier remove 17c5b5cf-bdae-4191-84d1-433db7cba758</field></block></value><value name=\"entity\"><block type=\"entity_from_deps\"></block></value></block></statement><next><block type=\"controls_if\"><value name=\"IF0\"><block type=\"logic_binary_ops\"><field name=\"OP\">EQ</field><value name=\"A\"><block type=\"variables_get_logic\"><mutation xmlns=\"http://www.w3.org/1999/xhtml\" is_player_var=\"true\" has_entity=\"true\"></mutation><field name=\"VAR\">global:transfur</field><value name=\"entity\"><block type=\"entity_from_deps\"></block></value></block></value><value name=\"B\"><block type=\"logic_boolean\"><field name=\"BOOL\">TRUE</field></block></value></block></value><statement name=\"DO0\"><block type=\"wait\"><value name=\"ticks\"><block type=\"math_number\"><field name=\"NUM\">10</field></block></value><statement name=\"do\"><block type=\"controls_if\"><value name=\"IF0\"><block type=\"logic_binary_ops\" inline=\"false\"><field name=\"OP\">OR</field><value name=\"A\"><block type=\"logic_binary_ops\" inline=\"false\"><field name=\"OP\">OR</field><value name=\"A\"><block type=\"logic_binary_ops\" inline=\"false\"><field name=\"OP\">OR</field><value name=\"A\"><block type=\"logic_binary_ops\" inline=\"false\"><field name=\"OP\">OR</field><value name=\"A\"><block type=\"logic_binary_ops\" inline=\"false\"><field name=\"OP\">OR</field><value name=\"A\"><block type=\"logic_binary_ops\" inline=\"false\"><field name=\"OP\">OR</field><value name=\"A\"><block type=\"text_binary_ops\"><value name=\"A\"><block type=\"variables_get_string\"><mutation xmlns=\"http://www.w3.org/1999/xhtml\" is_player_var=\"true\" has_entity=\"true\"></mutation><field name=\"VAR\">global:LatexForm</field><value name=\"entity\"><block type=\"entity_from_deps\"></block></value></block></value><value name=\"B\"><block type=\"text\"><field name=\"TEXT\">changed:form_aerosol_latex_wolf</field></block></value></block></value><value name=\"B\"><block type=\"text_binary_ops\"><value name=\"A\"><block type=\"variables_get_string\"><mutation xmlns=\"http://www.w3.org/1999/xhtml\" is_player_var=\"true\" has_entity=\"true\"></mutation><field name=\"VAR\">global:LatexForm</field><value name=\"entity\"><block type=\"entity_from_deps\"></block></value></block></value><value name=\"B\"><block type=\"text\"><field name=\"TEXT\">changed:form_dark_latex_dragon</field></block></value></block></value></block></value><value name=\"B\"><block type=\"text_binary_ops\"><value name=\"A\"><block type=\"variables_get_string\"><mutation xmlns=\"http://www.w3.org/1999/xhtml\" is_player_var=\"true\" has_entity=\"true\"></mutation><field name=\"VAR\">global:LatexForm</field><value name=\"entity\"><block type=\"entity_from_deps\"></block></value></block></value><value name=\"B\"><block type=\"text\"><field name=\"TEXT\">changed:form_latex_sniper_dog</field></block></value></block></value></block></value><value name=\"B\"><block type=\"text_binary_ops\"><value name=\"A\"><block type=\"variables_get_string\"><mutation xmlns=\"http://www.w3.org/1999/xhtml\" is_player_var=\"true\" has_entity=\"true\"></mutation><field name=\"VAR\">global:LatexForm</field><value name=\"entity\"><block type=\"entity_from_deps\"></block></value></block></value><value name=\"B\"><block type=\"text\"><field name=\"TEXT\">changed:form_latex_beifeng</field></block></value></block></value></block></value><value name=\"B\"><block type=\"text_binary_ops\"><value name=\"A\"><block type=\"variables_get_string\"><mutation xmlns=\"http://www.w3.org/1999/xhtml\" is_player_var=\"true\" has_entity=\"true\"></mutation><field name=\"VAR\">global:LatexForm</field><value name=\"entity\"><block type=\"entity_from_deps\"></block></value></block></value><value name=\"B\"><block type=\"text\"><field name=\"TEXT\">changed:form_latex_crystal_wolf</field></block></value></block></value></block></value><value name=\"B\"><block type=\"text_binary_ops\"><value name=\"A\"><block type=\"variables_get_string\"><mutation xmlns=\"http://www.w3.org/1999/xhtml\" is_player_var=\"true\" has_entity=\"true\"></mutation><field name=\"VAR\">global:LatexForm</field><value name=\"entity\"><block type=\"entity_from_deps\"></block></value></block></value><value name=\"B\"><block type=\"text\"><field name=\"TEXT\">changed:form_latex_crystal_wolf_horned</field></block></value></block></value></block></value><value name=\"B\"><block type=\"text_binary_ops\"><value name=\"A\"><block type=\"variables_get_string\"><mutation xmlns=\"http://www.w3.org/1999/xhtml\" is_player_var=\"true\" has_entity=\"true\"></mutation><field name=\"VAR\">global:LatexForm</field><value name=\"entity\"><block type=\"entity_from_deps\"></block></value></block></value><value name=\"B\"><block type=\"text\"><field name=\"TEXT\">changed:form_light_latex_wolf_organic</field></block></value></block></value></block></value><statement name=\"DO0\"><block type=\"controls_if\"><value name=\"IF0\"><block type=\"logic_negate\"><value name=\"BOOL\"><block type=\"entity_has_achievement\"><field name=\"achievement\">CUSTOM:OrganicTransfurAdvancement</field><value name=\"entity\"><block type=\"entity_from_deps\"></block></value></block></value></block></value><statement name=\"DO0\"><block type=\"entity_add_achievement\"><field name=\"achievement\">CUSTOM:OrganicTransfurAdvancement</field><value name=\"entity\"><block type=\"entity_from_deps\"></block></value></block></statement></block></statement></block></statement></block></statement></block></next></block></next></block></next></block></next></block></next></block></next></block></next></block><block type=\"wait\" x=\"129\" y=\"1628\"><value name=\"ticks\"><block type=\"math_number\"><field name=\"NUM\">10</field></block></value><statement name=\"do\"><block type=\"controls_if\"><value name=\"IF0\"><block type=\"logic_binary_ops\"><field name=\"OP\">EQ</field><value name=\"A\"><block type=\"variables_get_logic\"><mutation xmlns=\"http://www.w3.org/1999/xhtml\" is_player_var=\"true\" has_entity=\"true\"></mutation><field name=\"VAR\">global:organic_transfur</field><value name=\"entity\"><block type=\"entity_from_deps\"></block></value></block></value><value name=\"B\"><block type=\"logic_boolean\"><field name=\"BOOL\">TRUE</field></block></value></block></value><statement name=\"DO0\"><block type=\"controls_if\"><value name=\"IF0\"><block type=\"logic_binary_ops\"><field name=\"OP\">EQ</field><value name=\"A\"><block type=\"variables_get_logic\"><mutation xmlns=\"http://www.w3.org/1999/xhtml\" is_player_var=\"true\" has_entity=\"true\"></mutation><field name=\"VAR\">global:human_Form</field><value name=\"entity\"><block type=\"entity_from_deps\"></block></value></block></value><value name=\"B\"><block type=\"logic_boolean\"><field name=\"BOOL\">FALSE</field></block></value></block></value></block></statement></block></statement></block></xml>"
  }
}